<?xml version="1.0" encoding="UTF-8" ?>
<testsuite tests="12" failures="0" name="SpringTest" time="3.438" errors="0" skipped="0">
  <properties>
    <property name="java.runtime.name" value="Java(TM) SE Runtime Environment"/>
    <property name="sun.boot.library.path" value="F:\Java\jdk1.8.0_231\jre\bin"/>
    <property name="java.vm.version" value="25.231-b11"/>
    <property name="java.vm.vendor" value="Oracle Corporation"/>
    <property name="maven.multiModuleProjectDirectory" value="E:\JAVA\MySpring"/>
    <property name="java.vendor.url" value="http://java.oracle.com/"/>
    <property name="path.separator" value=";"/>
    <property name="guice.disable.misplaced.annotation.check" value="true"/>
    <property name="java.vm.name" value="Java HotSpot(TM) 64-Bit Server VM"/>
    <property name="file.encoding.pkg" value="sun.io"/>
    <property name="user.script" value=""/>
    <property name="user.country" value="CN"/>
    <property name="sun.java.launcher" value="SUN_STANDARD"/>
    <property name="sun.os.patch.level" value=""/>
    <property name="java.vm.specification.name" value="Java Virtual Machine Specification"/>
    <property name="user.dir" value="E:\JAVA\MySpring"/>
    <property name="java.runtime.version" value="1.8.0_231-b11"/>
    <property name="java.awt.graphicsenv" value="sun.awt.Win32GraphicsEnvironment"/>
    <property name="java.endorsed.dirs" value="F:\Java\jdk1.8.0_231\jre\lib\endorsed"/>
    <property name="os.arch" value="amd64"/>
    <property name="java.io.tmpdir" value="C:\Users\28120\AppData\Local\Temp\"/>
    <property name="line.separator" value="
"/>
    <property name="java.vm.specification.vendor" value="Oracle Corporation"/>
    <property name="user.variant" value=""/>
    <property name="os.name" value="Windows 10"/>
    <property name="maven.ext.class.path" value="F:\IntelliJ IDEA 2020.1.1\plugins\maven\lib\maven-event-listener.jar"/>
    <property name="classworlds.conf" value="F:\IntelliJ IDEA 2020.1.1\plugins\maven\lib\maven3\bin\m2.conf"/>
    <property name="sun.jnu.encoding" value="GBK"/>
    <property name="java.library.path" value="F:\Java\jdk1.8.0_231\bin;C:\WINDOWS\Sun\Java\bin;C:\WINDOWS\system32;C:\WINDOWS;C:\Program Files (x86)\Common Files\Oracle\Java\javapath;C:\Program Files (x86)\Intel\iCLS Client\;C:\Program Files\Intel\iCLS Client\;C:\Windows\system32;C:\Windows;C:\Windows\System32\Wbem;C:\Windows\System32\WindowsPowerShell\v1.0\;C:\Program Files (x86)\NVIDIA Corporation\PhysX\Common;C:\Program Files (x86)\Intel\Intel(R) Management Engine Components\DAL;C:\Program Files\Intel\Intel(R) Management Engine Components\DAL;C:\Program Files (x86)\Intel\Intel(R) Management Engine Components\IPT;C:\Program Files\Intel\Intel(R) Management Engine Components\IPT;C:\WINDOWS\system32;C:\WINDOWS;C:\WINDOWS\System32\Wbem;C:\WINDOWS\System32\WindowsPowerShell\v1.0\;C:\WINDOWS\System32\OpenSSH\;D:\SQL server 2012\SQL server\110\DTS\Binn\;D:\SQL server 2012\SQL server x86\110\Tools\Binn\;D:\SQL server 2012\SQL server\110\Tools\Binn\;D:\SQL server 2012\SQL server x86\110\Tools\Binn\ManagementStudio\;C:\Program Files (x86)\Microsoft Visual Studio 10.0\Common7\IDE\PrivateAssemblies\;D:\SQL server 2012\SQL server x86\110\DTS\Binn\;D:\pycharm\PyCharm 2018.3.3\bin\;F:\nodejs\;D:\Notepad++\;C:\Program Files\dotnet\;D:\SQL server 2012\SQL server\130\Tools\Binn\;D:\SQL server 2012\SQL server\Client SDK\ODBC\170\Tools\Binn\;D:\MongoDB\mongodb\bin;C:\Program Files\MySQL\MySQL Server 8.0\bin;D:\xmind\XMind\XMind.exe;D:\SQL server 2012\SQL server\120\DTS\Binn\;D:\SQL server 2012\SQL server\Client SDK\ODBC\110\Tools\Binn\;D:\SQL server 2012\SQL server x86\120\Tools\Binn\;D:\SQL server 2012\SQL server\120\Tools\Binn\;D:\SQL server 2012\SQL server x86\120\Tools\Binn\ManagementStudio\;D:\SQL server 2012\SQL server x86\120\DTS\Binn\;F:\Java\jdk1.8.0_231\bin;F:\MatLab\runtime\win64;F:\MatLab\bin;F:\MatLab\polyspace\bin;F:\Python\Python38-32\Scripts\;F:\Python\Python38-32\;C:\Users\28120\AppData\Local\Microsoft\WindowsApps;D:\pycharm\PyCharm 2018.3.3\bin\;F:\nodejs\;D:\Notepad++\;D:\MongoDB\mongodb\bin;C:\Users\28120\AppData\Roaming\npm;F:\VScode\Microsoft VS Code\bin;C:\Users\28120\AppData\Local\Programs\Microsoft VS Code\bin;C:\Program Files\MySQL\MySQL Server 8.0\bin;D:\xmind\XMind\XMind.exe;F:\IntelliJ IDEA 2020.1.1\bin;;F:\IntelliJ IDEA 2020.1.1\plugins\maven\lib\maven3\bin;;."/>
    <property name="maven.conf" value="F:\IntelliJ IDEA 2020.1.1\plugins\maven\lib\maven3/conf"/>
    <property name="java.specification.name" value="Java Platform API Specification"/>
    <property name="java.class.version" value="52.0"/>
    <property name="sun.management.compiler" value="HotSpot 64-Bit Tiered Compilers"/>
    <property name="os.version" value="10.0"/>
    <property name="user.home" value="C:\Users\28120"/>
    <property name="user.timezone" value="Asia/Shanghai"/>
    <property name="java.awt.printerjob" value="sun.awt.windows.WPrinterJob"/>
    <property name="java.specification.version" value="1.8"/>
    <property name="file.encoding" value="UTF-8"/>
    <property name="user.name" value="28120"/>
    <property name="java.class.path" value="F:\IntelliJ IDEA 2020.1.1\plugins\maven\lib\maven3\boot\plexus-classworlds-2.6.0.jar;F:\IntelliJ IDEA 2020.1.1\plugins\maven\lib\maven3\boot\plexus-classworlds.license;F:\IntelliJ IDEA 2020.1.1\lib\idea_rt.jar"/>
    <property name="java.vm.specification.version" value="1.8"/>
    <property name="sun.arch.data.model" value="64"/>
    <property name="java.home" value="F:\Java\jdk1.8.0_231\jre"/>
    <property name="sun.java.command" value="org.codehaus.classworlds.Launcher -Didea.version2020.1.1 -s F:\IntelliJ IDEA 2020.1.1\plugins\maven\lib\maven3\conf\settings.xml package"/>
    <property name="java.specification.vendor" value="Oracle Corporation"/>
    <property name="user.language" value="zh"/>
    <property name="awt.toolkit" value="sun.awt.windows.WToolkit"/>
    <property name="idea.version2020.1.1" value="true"/>
    <property name="java.vm.info" value="mixed mode"/>
    <property name="java.version" value="1.8.0_231"/>
    <property name="java.ext.dirs" value="F:\Java\jdk1.8.0_231\jre\lib\ext;C:\WINDOWS\Sun\Java\lib\ext"/>
    <property name="sun.boot.class.path" value="F:\Java\jdk1.8.0_231\jre\lib\resources.jar;F:\Java\jdk1.8.0_231\jre\lib\rt.jar;F:\Java\jdk1.8.0_231\jre\lib\sunrsasign.jar;F:\Java\jdk1.8.0_231\jre\lib\jsse.jar;F:\Java\jdk1.8.0_231\jre\lib\jce.jar;F:\Java\jdk1.8.0_231\jre\lib\charsets.jar;F:\Java\jdk1.8.0_231\jre\lib\jfr.jar;F:\Java\jdk1.8.0_231\jre\classes"/>
    <property name="java.vendor" value="Oracle Corporation"/>
    <property name="maven.home" value="F:\IntelliJ IDEA 2020.1.1\plugins\maven\lib\maven3"/>
    <property name="file.separator" value="\"/>
    <property name="java.vendor.url.bug" value="http://bugreport.sun.com/bugreport/"/>
    <property name="sun.cpu.endian" value="little"/>
    <property name="sun.io.unicode.encoding" value="UnicodeLittle"/>
    <property name="sun.desktop" value="windows"/>
    <property name="sun.cpu.isalist" value="amd64"/>
  </properties>
  <testcase classname="SpringTest" name="test01" time="2.228"/>
  <testcase classname="SpringTest" name="test02" time="0.12"/>
  <testcase classname="SpringTest" name="test03" time="0.1"/>
  <testcase classname="SpringTest" name="test04" time="0.23"/>
  <testcase classname="SpringTest" name="test05" time="0.1"/>
  <testcase classname="SpringTest" name="test06" time="0.01"/>
  <testcase classname="SpringTest" name="test07" time="0"/>
  <testcase classname="SpringTest" name="test08" time="0.16"/>
  <testcase classname="SpringTest" name="test09" time="0.18"/>
  <testcase classname="SpringTest" name="test10" time="0.11"/>
  <testcase classname="SpringTest" name="test11" time="0.1"/>
  <testcase classname="SpringTest" name="test12" time="0.1"/>
</testsuite>