E:\JAVA\MySpringMVC\src\main\java\com\zyg\web\HelloController.java
E:\JAVA\MySpringMVC\src\main\java\com\zyg\web\ForwardController.java
E:\JAVA\MySpringMVC\src\main\java\com\zyg\resolver\MyExceptionResolver.java
E:\JAVA\MySpringMVC\src\main\java\com\zyg\web\DataController.java
E:\JAVA\MySpringMVC\src\main\java\com\zyg\interceptor\MyInterceptor.java
E:\JAVA\MySpringMVC\src\main\java\com\zyg\web\JsonController.java
E:\JAVA\MySpringMVC\src\main\java\com\zyg\web\ParamController.java
E:\JAVA\MySpringMVC\src\main\java\com\zyg\entity\User.java
